{
  "code": 200,
  "data": {
    "beginDate": 1403798400000,
    "beginStr": "2014-06-27",
    "content": [
      {
        "acturalEnd": 1405497539000,
        "acturalStart": 1405497470000,
        "advertisers": "jiangshanit",
        "areaId": 1441,
        "areaName": "Banner",
        "channelId": 1440,
        "channelName": "subpage¡ªGame",
        "clicks": 500,
        "ctr": "100%",
        "description": "广告内容描述23123",
        "id": 2,
        "impressions": 500,
        "industry": 12,
        "industryName": "Consumer Electronics",
        "number": "00012273-01",
        "positionId": 1442,
        "positionName": "Playpage_banner",
        "postionNumber": "013659",
        "pv": 500,
        "ratioMine": 85,
        "rotationName": "Cyclic play",
        "rotationType": 1,
        "singlePrice": "85%",
        "siteId": 12,
        "siteName": "br",
        "uv": 500
      },
      {
        "acturalEnd": 1405496267000,
        "acturalStart": 1405495419000,
        "advertisers": "12jdlafjkl",
        "areaId": 1331,
        "areaName": "Banner",
        "billingModelId": 1,
        "billingModelName": "CPC",
        "channelId": 1330,
        "channelName": "subpage¡ªimage",
        "clicks": 400,
        "ctr": "100%",
        "customerQuote": 12,
        "description": "test",
        "id": 5,
        "impressions": 400,
        "number": "00018664-01",
        "positionId": 1332,
        "positionName": "imageHomepage_banner2",
        "postionNumber": "016852",
        "pv": 400,
        "rotationName": "Non cyclic play",
        "rotationType": 0,
        "singlePrice": "12.0",
        "siteId": 10,
        "siteName": "ae",
        "uv": 400
      },
      {
        "acturalEnd": 1405496267000,
        "acturalStart": 1405495419000,
        "advertisers": "徕卡的减肥啦",
        "areaId": 1331,
        "areaName": "Banner",
        "billingModelId": 1,
        "billingModelName": "CPC",
        "channelId": 1330,
        "channelName": "subpage¡ªimage",
        "clicks": 400,
        "ctr": "100%",
        "customerQuote": 12,
        "description": "test",
        "id": 5,
        "impressions": 400,
        "number": "00018664-01",
        "positionId": 1332,
        "positionName": "imageHomepage_banner2",
        "postionNumber": "016852",
        "pv": 400,
        "rotationName": "Non cyclic play",
        "rotationType": 0,
        "singlePrice": "12.0",
        "siteId": 10,
        "siteName": "ae",
        "uv": 400
      },
      {
        "acturalEnd": 1405495968000,
        "acturalStart": 1405489814000,
        "advertisers": "nike1",
        "areaId": 1435,
        "areaName": "Banner",
        "channelId": 1434,
        "channelName": "subpage¡ªimage",
        "clicks": 200,
        "ctr": "100%",
        "description": "new product",
        "id": 4,
        "impressions": 200,
        "number": "00019843-01",
        "positionId": 1438,
        "positionName": "imageContentpage_rightbanner",
        "postionNumber": "014289",
        "pv": 200,
        "ratioMine": 85,
        "rotationName": "Non cyclic play",
        "rotationType": 0,
        "singlePrice": "85%",
        "siteId": 12,
        "siteName": "br",
        "uv": 200
      },
      {
        "acturalEnd": 1403838996000,
        "acturalStart": 1403838811000,
        "advertisers": "jiangshanit",
        "areaId": 1452,
        "areaName": "Banner",
        "billingModelId": 1,
        "billingModelName": "CPC",
        "channelId": 1451,
        "channelName": "homepage",
        "clicks": 100,
        "ctr": "100%",
        "customerQuote": 2,
        "description": "阿多尼斯克里夫iowe",
        "id": 1,
        "impressions": 100,
        "industry": 12,
        "industryName": "Consumer Electronics",
        "number": "00010237-01",
        "positionId": 1454,
        "positionName": "Banner",
        "postionNumber": "019693",
        "pv": 100,
        "rotationName": "Cyclic play",
        "rotationType": 1,
        "singlePrice": "2.0",
        "siteId": 12,
        "siteName": "br",
        "uv": 100
      }
    ],
    "endDate": 1405440000000,
    "endStr": "2014-07-16",
    "offset": 0,
    "operatorIdList": [],
    "pageNumber": 1,
    "pageSize": 10,
    "queryAll": false,
    "result": [],
    "resultClass": "com.baidu.gcrm.report.model.Hao123ReportBean",
    "templateId": "csv_template",
    "total": 5,
    "totalCount": 15,
    "totalPages": 5,
    "transformerId": "tr1"
  },
  "message": "OK"
}