{
  "code":200,
  "data":{
    "content":[
      {
        "advertisers":"直客-118294789sdljkfasdfhadsfhasd",
        "description":"test超长广告内容容容容容容容容容容容容容容容容容容容容容容容容容容容容容容容容容容容容容容容容容",
        "id":"12345678-01",
        "throwAreaId":2,
        "throwChannelId":1,
        "throwPlace":"中文广告销售/测试站点1/测试频道1/测试区域1/详情页非轮播位",
        "throwPlatformId":3,
        "throwPositionId":381,
        "throwSiteId":3,
        "throwTime":"2014-04-19,2014-04-20;2014-04-19,2014-04-20;2014-04-19,2014-04-20;2014-04-19,2014-04-20;"
      },
      {
        "advertisers":"直客-百度OWb6gV3Uc9",
        "description":"123",
        "id":"12345678-02",
        "throwAreaId":2,
        "throwChannelId":1,
        "throwPlace":"中文广告销售/测试站点1/测试频道1/测试区域1/测试位置1",
        "throwPlatformId":3,
        "throwPositionId":3,
        "throwSiteId":3,
        "throwTime":"2014-04-16,2014-04-24;"
      }
    ],
    "offset":0,
    "pageNumber":1,
    "pageSize":20,
    "queryType":"CONTENTID",
    "resultClass":"com.baidu.gcrm.ad.content.web.vo.AdSolutionContentView4Material",
    "totalCount":593,
    "totalPages": 20
  },
  "message":"OK"
}
